<?xml version="1.0" encoding="UTF-8" standalone="no"?>
<svg
   width="190"
   height="32"
   version="1.1"
   id="svg35"
   sodipodi:docname="logo.svg"
   inkscape:version="1.1.2 (b8e25be833, 2022-02-05)"
   xmlns:inkscape="http://www.inkscape.org/namespaces/inkscape"
   xmlns:sodipodi="http://sodipodi.sourceforge.net/DTD/sodipodi-0.dtd"
   xmlns:xlink="http://www.w3.org/1999/xlink"
   xmlns="http://www.w3.org/2000/svg"
   xmlns:svg="http://www.w3.org/2000/svg">
  <sodipodi:namedview
     id="namedview37"
     pagecolor="#ffffff"
     bordercolor="#666666"
     borderopacity="1.0"
     inkscape:pageshadow="2"
     inkscape:pageopacity="0.0"
     inkscape:pagecheckerboard="0"
     showgrid="false"
     inkscape:zoom="3.6368421"
     inkscape:cx="78.227207"
     inkscape:cy="8.9363242"
     inkscape:window-width="1866"
     inkscape:window-height="1136"
     inkscape:window-x="0"
     inkscape:window-y="0"
     inkscape:window-maximized="1"
     inkscape:current-layer="svg35" />
  <defs
     id="defs5">
    <polygon
       id="path-rog1drdoce-1"
       points="48.573913,0.20566931 0,0.20566931 0,48.76609 48.573913,48.76609 " />
    <polygon
       id="path-rog1drdoce-3"
       points="24.44072,13.750634 0,13.750634 0,0.11941528 24.44072,0.11941528 " />
    <polygon
       id="path-rog1drdoce-5"
       points="87.35819,23.390909 0.12105112,23.390909 0.12105112,0.20498746 87.35819,0.20498746 " />
  </defs>
  <g
     id="ADM"
     stroke="none"
     stroke-width="1"
     fill="none"
     fill-rule="evenodd">
    <g
       id="Desktop-HD-&gt;-Home-2">
      <g
         id="Group-3"
         transform="translate(0,7.1982)">
        <mask
           id="mask-rog1drdoce-4"
           fill="#ffffff">
          <use
             xlink:href="#path-rog1drdoce-3"
             id="use7"
             x="0"
             y="0"
             width="100%"
             height="100%" />
        </mask>
        <g
           id="Clip-2" />
        <path
           d="m 24.438601,6.7103445 c 0.05704,2.7807001 -1.035168,4.9870545 -3.579957,6.2039455 -3.184108,1.522946 -6.138367,0.924082 -8.701317,-1.455027 C 8.4732282,14.374672 4.4951508,14.425399 1.8212495,11.627226 -0.55413293,9.1407446 -0.61429074,4.9247445 1.6895833,2.3740082 4.0164422,-0.20152818 8.0674467,-0.60931909 10.869609,1.5333445 L 8.847512,3.7450536 C 5.8489854,2.3880991 3.1861508,3.9223173 3.2726986,6.9025445 c 0.061293,2.115891 1.6211396,3.6997095 3.6690592,3.6997095 2.2232853,0 3.8549242,-1.6694913 3.8549242,-1.6694913 0,0 -0.215944,-1.1013454 -0.19154,-1.8715545 0.05391,-1.7033091 0.473317,-3.224 1.553887,-4.5640455 2.924749,-3.6272818 9.925189,-3.13691815 11.740138,1.6942909 -1.735779,0.054109 -3.416226,-0.1882545 -5.035379,-0.8448909 -0.835115,-0.3381818 -1.69662,-0.4565454 -2.536276,0.028464 -2.013017,0.8443272 -2.90375,2.5989272 -2.337358,4.6040636 0.554473,1.9620182 2.125671,2.9813537 4.169334,2.7170087 1.59106,-0.205445 3.23178,-1.7095087 3.068332,-4.2236087 1.081138,-0.064818 2.141278,0.1465454 3.210781,0.2378545"
           id="Fill-1"
           fill="#e30613"
           mask="url(#mask-rog1drdoce-4)" />
      </g>
      <path
         d="m 146.97474,28.457549 c -0.35982,0.3906 -0.87995,0.615773 -1.43131,0.615773 -0.51191,0 -1.00111,-0.194737 -1.36093,-0.5487 -0.49686,-0.488109 -0.50481,-0.961564 -0.50481,-2.171128 0,-1.209845 0.008,-1.683018 0.50481,-2.171972 0.35982,-0.3534 0.84902,-0.547855 1.36093,-0.547855 0.95629,0 1.69066,0.615209 1.85922,1.5624 h -0.41259 c -0.16118,-0.736673 -0.7114,-1.2028 -1.44663,-1.2028 -0.38989,0 -0.75679,0.143164 -1.03148,0.413991 -0.39017,0.382991 -0.42082,0.796418 -0.42082,1.946236 0,1.149537 0.0304,1.562682 0.42026,1.945955 0.27496,0.270264 0.64215,0.413146 1.03176,0.413146 0.42905,0 0.8493,-0.1798 1.13278,-0.518264 0.23723,-0.2852 0.32888,-0.601118 0.32888,-1.059637 v -0.481063 h -1.46138 v -0.361009 h 1.87454 v 0.872227 c 0,0.556309 -0.1223,0.953955 -0.44323,1.2927"
         id="Fill-4"
         fill="#e30613" />
      <path
         d="m 152.08219,29.028344 -1.29964,-2.4645 h -1.49968 v 2.4645 h -0.41231 v -5.349473 h 2.07204 c 0.88732,0 1.5607,0.502763 1.5607,1.434736 0,0.796418 -0.49006,1.314964 -1.25452,1.442909 l 1.31524,2.471828 z m -1.19294,-4.98931 h -1.60638 v 2.163801 h 1.60638 c 0.69635,0 1.20032,-0.345509 1.20032,-1.081901 0,-0.736672 -0.50425,-1.0819 -1.20032,-1.0819 z"
         id="Fill-6"
         fill="#e30613" />
      <path
         d="m 157.09932,29.028344 -0.47416,-1.300028 h -2.5394 l -0.47445,1.300028 h -0.44324 l 2.00422,-5.349473 h 0.36719 l 2.00337,5.349473 z m -1.74401,-4.808946 -1.1393,3.148191 h 2.2789 z"
         id="Fill-8"
         fill="#e30613" />
      <polygon
         id="Fill-10"
         fill="#e30613"
         points="158.91115,29.028344 158.49828,29.028344 158.49828,23.678871 158.91115,23.678871 162.05383,28.314498 162.05383,23.678871 162.46756,23.678871 162.46756,29.028344 162.05383,29.028344 158.91115,24.377498 " />
      <path
         d="m 167.33725,28.53984 c -0.32151,0.315073 -0.79511,0.488109 -1.36178,0.488109 h -1.82715 v -5.349755 h 1.82715 c 0.56696,0 1.04027,0.173037 1.36178,0.48811 0.55078,0.541372 0.5278,1.39049 0.5278,2.112227 0,0.720327 0.023,1.720218 -0.5278,2.261309 m -0.29058,-4.087491 c -0.31355,-0.315355 -0.73438,-0.413145 -1.16995,-0.413145 h -1.3161 v 4.628581 h 1.3161 c 0.43557,0 0.8564,-0.09779 1.16995,-0.414272 0.4353,-0.435409 0.4055,-1.381755 0.4055,-1.975264 0,-0.594073 0.0298,-1.389927 -0.4055,-1.8259"
         id="Fill-12"
         fill="#e30613" />
      <polygon
         id="Fill-14"
         fill="#020203"
         points="170.18983,23.678871 170.18983,28.097216 172.66028,28.097216 172.66028,29.028344 169.12629,29.028344 169.12629,23.678871 " />
      <polygon
         id="Fill-16"
         fill="#020203"
         points="173.93662,29.028316 173.93662,26.833516 172.30015,23.678279 173.4545,23.678279 174.47151,25.835316 175.47376,23.678279 176.62811,23.678279 174.99222,26.833516 174.99222,29.028316 " />
      <path
         d="m 180.50454,28.487816 c -0.38222,0.375382 -0.84845,0.585337 -1.46819,0.585337 -0.61945,0 -1.09419,-0.209955 -1.47613,-0.585337 -0.5505,-0.541372 -0.53607,-1.210691 -0.53607,-2.134209 0,-0.924927 -0.0144,-1.593118 0.53607,-2.134209 0.38194,-0.375945 0.85668,-0.586464 1.47613,-0.586464 0.61974,0 1.08597,0.210519 1.46819,0.586464 0.55079,0.540809 0.54344,1.209282 0.54344,2.133927 2.6e-4,0.9238 0.007,1.593119 -0.54344,2.134491 m -0.78687,-3.637427 c -0.1538,-0.173036 -0.38961,-0.285764 -0.68132,-0.285764 -0.29114,0 -0.53574,0.112728 -0.68897,0.285764 -0.20658,0.225455 -0.26021,0.473736 -0.26021,1.502936 0,1.028637 0.0533,1.2772 0.26021,1.502655 0.15323,0.172473 0.39783,0.285482 0.68897,0.285482 0.29171,0 0.52752,-0.113009 0.68132,-0.285482 0.20544,-0.225455 0.26645,-0.474018 0.26645,-1.502655 0,-1.0292 -0.0607,-1.277481 -0.26645,-1.502936"
         id="Fill-18"
         fill="#020203" />
      <polygon
         id="Fill-20"
         fill="#020203"
         points="183.19516,29.028344 182.13275,29.028344 182.13275,23.678871 183.08109,23.678871 185.2374,26.954162 185.2374,23.678871 186.30067,23.678871 186.30067,29.028344 185.35233,29.028344 183.19516,25.745162 " />
      <g
         id="Group-24"
         transform="translate(99.60091,7.480018)">
        <mask
           id="mask-rog1drdoce-6"
           fill="#ffffff">
          <use
             xlink:href="#path-rog1drdoce-5"
             id="use22"
             x="0"
             y="0"
             width="100%"
             height="100%" />
        </mask>
        <g
           id="Clip-23" />
        <path
           d="m 37.697895,15.469705 c -2.104389,0.970018 -3.904583,1.872963 -5.254161,3.438745 -0.389323,0.451473 -0.870302,1.023282 -0.343354,1.612 0.501694,0.559973 1.235789,0.729627 1.929023,0.313945 1.94236,-1.164191 3.138138,-2.857918 3.668492,-5.36469 M 37.44648,9.2573046 c -1.054464,0.1276636 -1.807288,0.7253999 -2.635877,1.1424914 -0.673937,0.339309 -1.317229,0.748227 -2.0133,1.032018 -1.446342,0.589282 -2.445188,0.289709 -3.657425,-1.043573 -0.802766,0.327755 -1.624545,0.676082 -2.455687,1.000736 -2.936099,1.147282 -5.003315,0.1829 -5.973501,-2.784927 C 20.461546,7.8422954 20.364215,7.05095 20.249858,6.2598864 20.085276,5.1252864 19.651969,4.92125 18.60318,5.4133046 18.518051,5.4533227 18.426679,5.4913682 18.357725,5.5522409 16.246242,7.4147773 13.80304,8.9363136 12.239789,11.361641 11.84025,11.981359 11.472493,12.557677 10.597367,12.427477 9.7324562,12.298968 9.4296807,11.717859 9.4518143,10.962023 8.8485335,10.783914 8.4467247,11.084614 8.0142695,11.22665 6.8936883,11.594141 5.7861602,11.992914 4.6218795,12.222032 1.8776049,12.761995 0.32939241,11.610486 0.1517566,8.8159773 0.08024825,7.6918045 0.12735296,6.5707318 0.35975508,5.4521954 0.50050167,4.7744227 0.75191593,4.1206046 0.70708134,3.3864682 0.66905706,2.7630864 1.1088901,2.2343955 1.553831,1.8142045 2.1114258,1.28805 2.7816747,1.3666773 3.3954546,1.7223318 4.0336382,2.0926409 3.8985669,2.6221773 3.64318,3.1920136 2.9232725,4.7995045 2.4979114,6.4687136 2.6826413,8.2500864 2.8293469,9.6698864 3.375875,10.125586 4.7464516,9.7304773 6.1482422,9.3260682 7.5000904,8.7525682 8.8814501,8.27545 9.3014197,8.1305955 9.5202012,7.8902045 9.4586246,7.4505682 9.3201481,6.4622318 9.7568598,5.4400773 9.0843408,4.46245 8.7046656,3.91065 9.2185608,3.2982591 9.5789402,2.8191682 9.9869918,2.27695 10.597083,2.3848864 11.144462,2.5424227 c 0.61151,0.1758546 0.684721,0.7045455 0.683018,1.2493 -0.0034,1.2614182 -0.0011,2.5228364 -0.0011,3.9116364 0.929325,-0.2945 1.360645,-0.9333818 1.914835,-1.3899273 1.018143,-0.8384091 1.983789,-1.7391 2.996824,-2.5842727 0.696355,-0.5808273 1.512458,-0.9742455 2.399218,-1.1641909 2.036853,-0.4359727 3.150624,0.3612909 3.476384,2.4056 0.162313,1.0176454 0.276386,2.0491 0.628252,3.0278545 0.438698,1.2214 1.066099,1.5945273 2.287416,1.1994182 C 26.693555,8.82105 27.809879,8.30025 28.954013,7.8594864 29.420804,7.6794045 29.488339,7.2442773 29.678461,6.8762227 31.188081,3.95405 33.48401,1.9015682 36.569936,0.70947727 c 1.127107,-0.43569091 2.286848,-0.55320909 3.47837,-0.48754545 0.379108,0.0205727 0.744879,0.0741182 1.087381,0.26998182 0.67791,0.3875 0.93954,0.95874546 0.625414,1.65793636 -0.276669,0.6166182 -0.826035,0.9641 -1.509621,0.6490273 -0.916839,-0.4224455 -1.766426,-0.1798 -2.601541,0.1530273 -1.957967,0.7803545 -3.734609,1.8230818 -4.894066,3.6596908 -0.223321,0.3534 -0.406349,0.7386455 -0.556459,1.1286819 -0.114073,0.2961909 -0.26163,0.6425454 0.04569,0.9181636 0.307883,0.2761818 0.623144,0.091591 0.908893,-0.061718 0.872005,-0.4681 1.719889,-0.9824182 2.605231,-1.4223363 3.054428,-1.5167455 4.037384,-1.0201819 4.570008,2.3044272 0.117761,0.7352632 0.147273,1.4846182 0.226159,2.3213362 3.260724,-0.959309 6.514921,-1.719091 9.813385,-2.3004816 5.869927,-1.0339909 11.788946,-1.6570909 17.725273,-2.1235 5.607447,-0.4404818 11.224541,-0.7442818 16.84731,-0.9223909 0.28348,-0.00902 0.56781,-0.00395 0.850439,-0.023391 0.857816,-0.058618 1.570629,0.150209 1.566392,1.1520727 -0.004,1.0021455 -0.756816,1.1489727 -1.584553,1.1825091 -7.462411,0.3009817 -14.923115,0.6442363 -22.35601,1.3899277 -7.148565,0.716945 -14.265915,1.625245 -21.199104,3.61629 -1.138174,0.326628 -1.776641,0.766828 -1.990599,2.05981 -0.461399,2.785208 -1.884472,5.07019 -4.239707,6.742218 -1.121149,0.795854 -2.348709,0.9734 -3.64125,0.693836 -2.585084,-0.559127 -3.609753,-2.952046 -2.226407,-5.1956 0.967916,-1.570009 2.451431,-2.589064 4.032844,-3.461291 1.030628,-0.568145 2.096443,-1.076827 3.166798,-1.5686 0.422523,-0.194173 0.749986,-0.359318 0.663438,-0.906891 -0.145287,-0.919291 -0.05136,-1.879727 -0.537164,-2.8773634"
           id="Fill-22"
           fill="#020203"
           mask="url(#mask-rog1drdoce-6)" />
      </g>
      <path
         d="m 16.327398,10.573114 c 0.839656,-0.484728 1.701161,-0.366646 2.536277,-0.02818 1.619153,0.656354 3.299883,0.898718 5.035379,0.844609 1.419951,0.125973 2.825715,0.04734 4.231762,-0.2015 0.668546,-0.118364 1.264733,-0.293091 1.7931,-0.745973 0.670816,-0.5746271 1.47415,-0.8282635 2.370558,-0.7163816 0.503964,0.062845 0.921096,0.2789996 1.065815,0.7910636 0.150678,0.532355 0.07037,1.050055 -0.424226,1.380909 -0.428199,0.286327 -0.890165,0.528973 -1.356388,0.751891 -1.141296,0.5456 -2.132198,2.539464 -1.829706,3.7696 0.150395,0.612391 0.533191,0.948036 1.213088,0.962127 0.812982,0.01663 1.476137,-0.3348 2.072323,-0.796982 1.117176,-0.865745 2.192355,-1.784754 3.28683,-2.679245 1.276651,-1.043009 2.142981,-0.859264 2.593597,0.7099 0.912866,3.180318 2.505913,3.969409 5.932638,2.740964 0.803902,-0.288019 1.583683,-0.620564 2.26131,-1.145591 1.242032,-0.961846 1.490609,-2.137873 0.643291,-3.455373 -0.506233,-0.787118 -1.141863,-1.492509 -1.724145,-2.230591 -0.707706,-0.8970272 -0.758216,-1.5877635 -0.145571,-2.1020817 0.642156,-0.5388364 1.956832,-0.3976455 2.359492,0.4399182 0.573769,1.1932185 1.484082,2.1621095 2.029191,3.3629365 0.903786,1.990764 0.611794,3.945172 -1.030061,5.385827 -2.097862,1.839991 -4.601505,2.751391 -7.406789,2.685164 -1.951723,-0.04622 -3.407713,-0.971428 -4.31462,-2.722646 -0.143585,-0.277309 -0.171393,-0.652409 -0.630239,-0.844891 -0.946066,0.386091 -1.647813,1.237182 -2.527479,1.826182 -0.994307,0.665373 -1.987478,1.265646 -3.226105,1.310455 -2.450012,0.08877 -3.923878,-1.360337 -3.840452,-3.789891 0.02582,-0.749918 0.102438,-1.495328 0.414862,-2.288927 -1.155768,-0.1519 -2.213637,0.02311 -3.272642,0.122027 -1.06922,-0.09103 -2.12936,-0.302673 -3.210498,-0.237573 -0.854411,-0.243491 -1.721592,-0.448936 -2.559545,-0.738927 -1.154632,-0.399618 -2.11432,-1.031455 -2.341047,-2.358818"
         id="Fill-25"
         fill="#020203" />
      <path
         d="m 85.864214,14.658491 c -0.281777,1.198573 -0.204593,2.2289 -0.26163,3.247109 -0.03973,0.708209 -0.361798,1.176027 -1.11746,1.180818 -0.803617,0.0054 -1.17932,-0.433436 -1.210818,-1.2338 C 83.075105,12.828646 83.59808,7.9303636 85.768869,3.3077 86.229985,2.325 86.780486,1.4023273 87.48961,0.57519091 c 0.544258,-0.63493636 1.209683,-0.76626364 1.875108,-0.28266364 0.663154,0.48219091 0.574053,1.14277273 0.133936,1.74191823 -1.436977,1.9558181 -2.194341,4.2238909 -3.035416,6.4536363 -0.05959,0.1583818 -0.0077,0.3584728 -0.0077,0.5320728 0.390174,0.3500181 0.710259,0.045654 1.048505,-0.071018 2.516129,-0.868 5.083619,-1.4310728 7.769155,-1.2549364 0.46452,0.030436 0.956566,0.017754 1.316378,0.4055364 0.360947,0.3891909 0.404079,0.8454545 0.218781,1.3098909 -0.222187,0.5585636 -0.673938,0.7203275 -1.260476,0.6664995 -2.358073,-0.2155904 -4.592993,0.373691 -6.789604,1.112337 -0.591079,0.199245 -1.450314,0.273082 -1.557293,1.028918 -0.108398,0.765418 0.709976,1.036527 1.224722,1.396691 2.706818,1.893536 5.487982,3.661381 8.734234,4.525718 0.769566,0.204882 1.170523,0.617745 0.978699,1.409373 -0.183878,0.757527 -0.72388,1.062736 -1.496284,0.938172 -0.844763,-0.135554 -1.638449,-0.437945 -2.4205,-0.769645 -2.962205,-1.257191 -5.709601,-2.872291 -8.35768,-5.0592"
         id="Fill-27"
         fill="#020203" />
      <path
         d="m 57.853402,11.759146 c -1.691513,0.986081 -2.53202,2.414618 -2.80727,4.221918 -0.262482,1.725009 0.470763,2.611045 2.204273,2.623445 2.460511,0.01747 4.315755,-1.136573 5.786217,-3.003336 0.501126,-0.636346 0.420253,-1.289318 0.03065,-1.960609 -0.428199,-0.7378 -1.110366,-0.726809 -1.840205,-0.742028 -1.222168,-0.02536 -2.584516,0.327191 -3.373661,-1.13939 m 7.599748,1.221118 c 0.826035,1.965963 0.226159,3.440154 -1.089935,4.83149 -2.226974,2.354873 -4.937481,3.362091 -8.138898,3.163128 -2.283727,-0.142037 -3.736879,-1.503218 -3.762134,-3.765373 -0.03604,-3.268245 1.25168,-5.923536 4.143795,-7.6634817 0.924217,-0.5557455 1.864893,-0.4128637 2.945747,-0.3023909 2.013017,0.2057272 3.698003,1.5697276 5.806364,1.3296176 1.290556,-0.146827 1.84588,0.3162 1.883905,1.141082 0.03604,0.782046 -0.248293,0.993128 -1.788844,1.265928"
         id="Fill-29"
         fill="#020203" />
      <path
         d="m 71.118086,12.859702 c 1.983506,-1.354137 3.980348,-2.379391 6.17327,-2.9799456 1.05333,-0.2885818 2.114321,-0.4720455 3.189216,-0.029873 0.786024,0.3232456 1.105542,0.8651826 0.848452,1.6692096 -0.272129,0.849682 -0.892152,1.058509 -1.671933,0.700036 -0.611794,-0.281254 -1.180455,-0.179236 -1.786574,-0.01606 -1.842475,0.496846 -3.505611,1.363437 -5.099226,2.379673 -0.961106,0.612673 -1.594182,1.431918 -1.723294,2.602873 -0.0891,0.807127 -0.392445,1.524354 -1.38817,1.412191 -0.974443,-0.109628 -1.106677,-0.879555 -1.111217,-1.679073 -0.0105,-1.963145 -0.03916,-3.926854 -0.01646,-5.89 0.0071,-0.619154 0.379959,-1.1588365 0.702881,-1.6596274 0.314977,-0.4878272 0.858668,-0.5253091 1.394413,-0.3007 0.541136,0.2265818 0.840791,0.6050637 0.705152,1.2112544 -0.181041,0.808819 -0.324058,1.616228 -0.216512,2.580046"
         id="Fill-31"
         fill="#020203" />
      <path
         d="m 104.84366,1.7726082 c 1.12683,0.017191 1.88675,0.7626 1.87454,1.8383 -0.0125,1.1300909 -0.85129,1.9287636 -1.99769,1.9031182 -1.08653,-0.024518 -1.85099,-0.7913455 -1.86319,-1.8693 -0.0128,-1.1309364 0.79312,-1.8904364 1.98634,-1.8721182"
         id="Fill-33"
         fill="#020203" />
    </g>
  </g>
</svg>
